%YAML 1.1
%TAG !u! tag:unity3d.com,2011:
--- !u!21 &2100000
Material:
  serializedVersion: 6
  m_ObjectHideFlags: 0
  m_CorrespondingSourceObject: {fileID: 0}
  m_PrefabInstance: {fileID: 0}
  m_PrefabAsset: {fileID: 0}
  m_Name: MatB_Tessellation Sample
  m_Shader: {fileID: 4800000, guid: b7540544356f1654b95d41776b1a4f6a, type: 3}
  m_ShaderKeywords: 
  m_LightmapFlags: 4
  m_EnableInstancingVariants: 0
  m_DoubleSidedGI: 0
  m_CustomRenderQueue: -1
  stringTagMap: {}
  disabledShaderPasses: []
  m_SavedProperties:
    serializedVersion: 3
    m_TexEnvs:
    - _DispTex:
        m_Texture: {fileID: 2800000, guid: df4cb67d1295ee141b97b9deaaa55187, type: 3}
        m_Scale: {x: 1, y: 1}
        m_Offset: {x: 0, y: 0}
    - _MainTex:
        m_Texture: {fileID: 2800000, guid: f7d9c5ffc18e0604aa7f0f002b7352c5, type: 3}
        m_Scale: {x: 1, y: 1}
        m_Offset: {x: 0, y: 0}
    - _NormalMap:
        m_Texture: {fileID: 0}
        m_Scale: {x: 1, y: 1}
        m_Offset: {x: 0, y: 0}
    m_Floats:
    - _Displacement: 0
    - _EdgeLength: 2
    m_Colors:
    - _Color: {r: 1, g: 1, b: 1, a: 0}
    - _SpecColor: {r: 0.468, g: 0.468, b: 0.468, a: 0.4862745}
  m_BuildTextureStacks: []
