%YAML 1.1
%TAG !u! tag:unity3d.com,2011:
--- !u!21 &2100000
Material:
  serializedVersion: 6
  m_ObjectHideFlags: 0
  m_CorrespondingSourceObject: {fileID: 0}
  m_PrefabInstance: {fileID: 0}
  m_PrefabAsset: {fileID: 0}
  m_Name: Custom_FlamesShader
  m_Shader: {fileID: 4800000, guid: fabc08cc2adc138499367f5a2b4afa05, type: 3}
  m_ShaderKeywords: 
  m_LightmapFlags: 4
  m_EnableInstancingVariants: 0
  m_DoubleSidedGI: 0
  m_CustomRenderQueue: 3000
  stringTagMap: {}
  disabledShaderPasses: []
  m_SavedProperties:
    serializedVersion: 3
    m_TexEnvs:
    - _MainTex:
        m_Texture: {fileID: 2800000, guid: 17ce33bcc70bbf94c9e6d863c10e2553, type: 3}
        m_Scale: {x: 1, y: 1}
        m_Offset: {x: 0, y: 0}
    m_Floats:
    - _DissolveAmount: 0.6
    - _DissolveScale: 2
    - _DistortionAmount: 0.15
    - _DistortionScale: 5
    m_Colors:
    - _Color: {r: 383.49805, g: 54.211765, b: 0, a: 0.09803922}
    - _DissolveSpeed: {r: -0.1, g: -0.5, b: 0, a: 0}
    - _DistortionSpeed: {r: 0, g: -0.3, b: 0, a: 0}
  m_BuildTextureStacks: []
