%YAML 1.1
%TAG !u! tag:unity3d.com,2011:
--- !u!21 &2100000
Material:
  serializedVersion: 6
  m_ObjectHideFlags: 0
  m_CorrespondingSourceObject: {fileID: 0}
  m_PrefabInstance: {fileID: 0}
  m_PrefabAsset: {fileID: 0}
  m_Name: KIChargeBaseEffect
  m_Shader: {fileID: 4800000, guid: 45a7630102cdfee45af429d9fcbc4a94, type: 3}
  m_ShaderKeywords: 
  m_LightmapFlags: 4
  m_EnableInstancingVariants: 0
  m_DoubleSidedGI: 0
  m_CustomRenderQueue: -1
  stringTagMap: {}
  disabledShaderPasses: []
  m_SavedProperties:
    serializedVersion: 3
    m_TexEnvs:
    - _MainTex:
        m_Texture: {fileID: 2800000, guid: 5d24f63470215cc4c9be5aff52ffbaa3, type: 3}
        m_Scale: {x: 1, y: 1}
        m_Offset: {x: 0, y: 0}
    m_Floats:
    - _DissolveScale: 7
    m_Colors:
    - _Color: {r: 6.0235295, g: 6.0235295, b: 6.0235295, a: 1}
    - _MainTexSpeed: {r: 0, g: -0.5, b: 0, a: 0}
    - _MainTexTiling: {r: 4, g: 1, b: 0, a: 0}
  m_BuildTextureStacks: []
