%YAML 1.1
%TAG !u! tag:unity3d.com,2011:
--- !u!21 &2100000
Material:
  serializedVersion: 6
  m_ObjectHideFlags: 0
  m_CorrespondingSourceObject: {fileID: 0}
  m_PrefabInstance: {fileID: 0}
  m_PrefabAsset: {fileID: 0}
  m_Name: TornadoShader_2
  m_Shader: {fileID: 4800000, guid: 4faf5c6827bc7d14bb36852a7ae6b983, type: 3}
  m_ShaderKeywords: 
  m_LightmapFlags: 4
  m_EnableInstancingVariants: 0
  m_DoubleSidedGI: 0
  m_CustomRenderQueue: -1
  stringTagMap: {}
  disabledShaderPasses: []
  m_SavedProperties:
    serializedVersion: 3
    m_TexEnvs:
    - _MainTex:
        m_Texture: {fileID: 0}
        m_Scale: {x: 1, y: 1}
        m_Offset: {x: 0, y: 0}
    m_Floats:
    - _Dissolve: 0.64
    - _NoisePower: 0.22
    - _NoiseScale: 1
    - _TwirlAmount: 0.75
    - _WobbleAmount: 0.066
    - _WobbleDistance: 3
    - _WobbleFrequency: 1
    - _WobbleSpeed: 13
    m_Colors:
    - _Color: {r: 1, g: 0.7713684, b: 0.638, a: 1}
    - _NoiseSpeed: {r: 0, g: -0.11, b: 0, a: 0}
    - _TwirlCenter: {r: 2.5, g: 2.5, b: 0, a: 0}
    - _TwirlSpeed: {r: -0.07, g: 0, b: 0, a: 0}
  m_BuildTextureStacks: []
